{
  "page": 1,
  "per_page": 3,
  "total": 12,
  "total_pages": 4,
  "author":{
    "first_name": "Ms R",
    "last_name":"Reddy"
  },
  "data": [
    {
      "id": 1,
      "first_name": "George",
      "last_name": "Bluth",
      "avatar": "https://www.imago-images.de/bild/st/0135042821/s.jpg",
      "images": [
        {
          "id" : 122,
          "imageName": "377cjsahdh388.jpeg"
        },
        {
          "id" : 152,
          "imageName": "1743fsahdh388.jpeg"
        }
      ]

    },
    {
      "id": 2,
      "first_name": "Janet",
      "last_name": "Weaver",
      "avatar": "https://upload.wikimedia.org/wikipedia/commons/b/b0/Antique_book_page_turning.jpg",
      "images": [
        {
          "id" : 122,
          "imageName": "377cjsahdh388.jpeg"
        },
        {
          "id" : 152,
          "imageName": "1743fsahdh388.jpeg"
        }
      ]
    },
    {
      "id": 3,
      "first_name": "Emma",
      "last_name": "Wong",
      "avatar": "https://blog.kakaocdn.net/dn/k1SZJ/btqOldJ1MQv/SPGnR73acO0hcGBf74NtaK/img.jpg",
      "images": [
        {
          "id" : 122,
          "imageName": "377cjsahdh388.jpeg"
        },
        {
          "id" : 152,
          "imageName": "1743fsahdh388.jpeg"
        }
      ]
    }
  ]
}